%YAML 1.1
%TAG !u! tag:unity3d.com,2011:
--- !u!1001 &5421529866863281175
PrefabInstance:
  m_ObjectHideFlags: 0
  serializedVersion: 2
  m_Modification:
    m_TransformParent: {fileID: 3008951031452802197}
    m_Modifications:
    - target: {fileID: -8679921383154817045, guid: 2eba0ee06f79c0b478ed292e0a119341, type: 3}
      propertyPath: m_RootOrder
      value: 5
      objectReference: {fileID: 0}
    - target: {fileID: -8679921383154817045, guid: 2eba0ee06f79c0b478ed292e0a119341, type: 3}
      propertyPath: m_LocalPosition.x
      value: -0
      objectReference: {fileID: 0}
    - target: {fileID: -8679921383154817045, guid: 2eba0ee06f79c0b478ed292e0a119341, type: 3}
      propertyPath: m_LocalPosition.y
      value: 1
      objectReference: {fileID: 0}
    - target: {fileID: -8679921383154817045, guid: 2eba0ee06f79c0b478ed292e0a119341, type: 3}
      propertyPath: m_LocalPosition.z
      value: -1
      objectReference: {fileID: 0}
    - target: {fileID: -8679921383154817045, guid: 2eba0ee06f79c0b478ed292e0a119341, type: 3}
      propertyPath: m_LocalRotation.w
      value: 0.7071068
      objectReference: {fileID: 0}
    - target: {fileID: -8679921383154817045, guid: 2eba0ee06f79c0b478ed292e0a119341, type: 3}
      propertyPath: m_LocalRotation.x
      value: 0
      objectReference: {fileID: 0}
    - target: {fileID: -8679921383154817045, guid: 2eba0ee06f79c0b478ed292e0a119341, type: 3}
      propertyPath: m_LocalRotation.y
      value: 0.7071068
      objectReference: {fileID: 0}
    - target: {fileID: -8679921383154817045, guid: 2eba0ee06f79c0b478ed292e0a119341, type: 3}
      propertyPath: m_LocalRotation.z
      value: 0
      objectReference: {fileID: 0}
    - target: {fileID: -8679921383154817045, guid: 2eba0ee06f79c0b478ed292e0a119341, type: 3}
      propertyPath: m_LocalEulerAnglesHint.x
      value: 0
      objectReference: {fileID: 0}
    - target: {fileID: -8679921383154817045, guid: 2eba0ee06f79c0b478ed292e0a119341, type: 3}
      propertyPath: m_LocalEulerAnglesHint.y
      value: 90
      objectReference: {fileID: 0}
    - target: {fileID: -8679921383154817045, guid: 2eba0ee06f79c0b478ed292e0a119341, type: 3}
      propertyPath: m_LocalEulerAnglesHint.z
      value: 0
      objectReference: {fileID: 0}
    - target: {fileID: 919132149155446097, guid: 2eba0ee06f79c0b478ed292e0a119341, type: 3}
      propertyPath: m_Name
      value: 7c
      objectReference: {fileID: 0}
    m_RemovedComponents: []
  m_SourcePrefab: {fileID: 100100000, guid: 2eba0ee06f79c0b478ed292e0a119341, type: 3}
--- !u!1001 &6172376188548123500
PrefabInstance:
  m_ObjectHideFlags: 0
  serializedVersion: 2
  m_Modification:
    m_TransformParent: {fileID: 3008951031452802197}
    m_Modifications:
    - target: {fileID: -8679921383154817045, guid: 5624ad288071fc448b7ebf7cb4a3dea8, type: 3}
      propertyPath: m_RootOrder
      value: 4
      objectReference: {fileID: 0}
    - target: {fileID: -8679921383154817045, guid: 5624ad288071fc448b7ebf7cb4a3dea8, type: 3}
      propertyPath: m_LocalScale.z
      value: 1.25
      objectReference: {fileID: 0}
    - target: {fileID: -8679921383154817045, guid: 5624ad288071fc448b7ebf7cb4a3dea8, type: 3}
      propertyPath: m_LocalPosition.x
      value: 0
      objectReference: {fileID: 0}
    - target: {fileID: -8679921383154817045, guid: 5624ad288071fc448b7ebf7cb4a3dea8, type: 3}
      propertyPath: m_LocalPosition.y
      value: 0
      objectReference: {fileID: 0}
    - target: {fileID: -8679921383154817045, guid: 5624ad288071fc448b7ebf7cb4a3dea8, type: 3}
      propertyPath: m_LocalPosition.z
      value: -1
      objectReference: {fileID: 0}
    - target: {fileID: -8679921383154817045, guid: 5624ad288071fc448b7ebf7cb4a3dea8, type: 3}
      propertyPath: m_LocalRotation.w
      value: 0.7071068
      objectReference: {fileID: 0}
    - target: {fileID: -8679921383154817045, guid: 5624ad288071fc448b7ebf7cb4a3dea8, type: 3}
      propertyPath: m_LocalRotation.x
      value: 0
      objectReference: {fileID: 0}
    - target: {fileID: -8679921383154817045, guid: 5624ad288071fc448b7ebf7cb4a3dea8, type: 3}
      propertyPath: m_LocalRotation.y
      value: 0.7071068
      objectReference: {fileID: 0}
    - target: {fileID: -8679921383154817045, guid: 5624ad288071fc448b7ebf7cb4a3dea8, type: 3}
      propertyPath: m_LocalRotation.z
      value: 0
      objectReference: {fileID: 0}
    - target: {fileID: -8679921383154817045, guid: 5624ad288071fc448b7ebf7cb4a3dea8, type: 3}
      propertyPath: m_LocalEulerAnglesHint.x
      value: 0
      objectReference: {fileID: 0}
    - target: {fileID: -8679921383154817045, guid: 5624ad288071fc448b7ebf7cb4a3dea8, type: 3}
      propertyPath: m_LocalEulerAnglesHint.y
      value: 90
      objectReference: {fileID: 0}
    - target: {fileID: -8679921383154817045, guid: 5624ad288071fc448b7ebf7cb4a3dea8, type: 3}
      propertyPath: m_LocalEulerAnglesHint.z
      value: 0
      objectReference: {fileID: 0}
    - target: {fileID: -7511558181221131132, guid: 5624ad288071fc448b7ebf7cb4a3dea8, type: 3}
      propertyPath: m_Materials.Array.data[0]
      value: 
      objectReference: {fileID: 2100000, guid: 3e07ba9aba4df714cb46b26778b7488d, type: 2}
    - target: {fileID: 919132149155446097, guid: 5624ad288071fc448b7ebf7cb4a3dea8, type: 3}
      propertyPath: m_Name
      value: 7c_Wall
      objectReference: {fileID: 0}
    m_RemovedComponents: []
  m_SourcePrefab: {fileID: 100100000, guid: 5624ad288071fc448b7ebf7cb4a3dea8, type: 3}
--- !u!1001 &7457633286129601772
PrefabInstance:
  m_ObjectHideFlags: 0
  serializedVersion: 2
  m_Modification:
    m_TransformParent: {fileID: 0}
    m_Modifications:
    - target: {fileID: 141372992038706790, guid: b4f2ed227fdd45f4cbafb3ed64aad8ec, type: 3}
      propertyPath: m_IsActive
      value: 0
      objectReference: {fileID: 0}
    - target: {fileID: 1773587525373972662, guid: b4f2ed227fdd45f4cbafb3ed64aad8ec, type: 3}
      propertyPath: _windowType
      value: 15
      objectReference: {fileID: 0}
    - target: {fileID: 1773587525373972662, guid: b4f2ed227fdd45f4cbafb3ed64aad8ec, type: 3}
      propertyPath: _overviewName
      value: Window 7C
      objectReference: {fileID: 0}
    - target: {fileID: 1773587525373972662, guid: b4f2ed227fdd45f4cbafb3ed64aad8ec, type: 3}
      propertyPath: _overviewImage
      value: 
      objectReference: {fileID: 21300000, guid: 806e2ccae45f209438dc2fd46a5dfb01, type: 3}
    - target: {fileID: 1773587525373972662, guid: b4f2ed227fdd45f4cbafb3ed64aad8ec, type: 3}
      propertyPath: WindowWidthInCm
      value: 50
      objectReference: {fileID: 0}
    - target: {fileID: 1773587525373972662, guid: b4f2ed227fdd45f4cbafb3ed64aad8ec, type: 3}
      propertyPath: WindowHeightInCm
      value: 80
      objectReference: {fileID: 0}
    - target: {fileID: 2866909231008897910, guid: b4f2ed227fdd45f4cbafb3ed64aad8ec, type: 3}
      propertyPath: m_IsActive
      value: 0
      objectReference: {fileID: 0}
    - target: {fileID: 2984671219997290015, guid: b4f2ed227fdd45f4cbafb3ed64aad8ec, type: 3}
      propertyPath: m_IsActive
      value: 0
      objectReference: {fileID: 0}
    - target: {fileID: 4740234613017378611, guid: b4f2ed227fdd45f4cbafb3ed64aad8ec, type: 3}
      propertyPath: m_Name
      value: Window7C Variant
      objectReference: {fileID: 0}
    - target: {fileID: 5674294682757648505, guid: b4f2ed227fdd45f4cbafb3ed64aad8ec, type: 3}
      propertyPath: m_RootOrder
      value: 0
      objectReference: {fileID: 0}
    - target: {fileID: 5674294682757648505, guid: b4f2ed227fdd45f4cbafb3ed64aad8ec, type: 3}
      propertyPath: m_LocalPosition.x
      value: 0
      objectReference: {fileID: 0}
    - target: {fileID: 5674294682757648505, guid: b4f2ed227fdd45f4cbafb3ed64aad8ec, type: 3}
      propertyPath: m_LocalPosition.y
      value: 0
      objectReference: {fileID: 0}
    - target: {fileID: 5674294682757648505, guid: b4f2ed227fdd45f4cbafb3ed64aad8ec, type: 3}
      propertyPath: m_LocalPosition.z
      value: 0
      objectReference: {fileID: 0}
    - target: {fileID: 5674294682757648505, guid: b4f2ed227fdd45f4cbafb3ed64aad8ec, type: 3}
      propertyPath: m_LocalRotation.w
      value: 1
      objectReference: {fileID: 0}
    - target: {fileID: 5674294682757648505, guid: b4f2ed227fdd45f4cbafb3ed64aad8ec, type: 3}
      propertyPath: m_LocalRotation.x
      value: 0
      objectReference: {fileID: 0}
    - target: {fileID: 5674294682757648505, guid: b4f2ed227fdd45f4cbafb3ed64aad8ec, type: 3}
      propertyPath: m_LocalRotation.y
      value: 0
      objectReference: {fileID: 0}
    - target: {fileID: 5674294682757648505, guid: b4f2ed227fdd45f4cbafb3ed64aad8ec, type: 3}
      propertyPath: m_LocalRotation.z
      value: 0
      objectReference: {fileID: 0}
    - target: {fileID: 5674294682757648505, guid: b4f2ed227fdd45f4cbafb3ed64aad8ec, type: 3}
      propertyPath: m_LocalEulerAnglesHint.x
      value: 0
      objectReference: {fileID: 0}
    - target: {fileID: 5674294682757648505, guid: b4f2ed227fdd45f4cbafb3ed64aad8ec, type: 3}
      propertyPath: m_LocalEulerAnglesHint.y
      value: 0
      objectReference: {fileID: 0}
    - target: {fileID: 5674294682757648505, guid: b4f2ed227fdd45f4cbafb3ed64aad8ec, type: 3}
      propertyPath: m_LocalEulerAnglesHint.z
      value: 0
      objectReference: {fileID: 0}
    - target: {fileID: 6504922198686176420, guid: b4f2ed227fdd45f4cbafb3ed64aad8ec, type: 3}
      propertyPath: m_IsActive
      value: 0
      objectReference: {fileID: 0}
    m_RemovedComponents: []
  m_SourcePrefab: {fileID: 100100000, guid: b4f2ed227fdd45f4cbafb3ed64aad8ec, type: 3}
--- !u!4 &3008951031452802197 stripped
Transform:
  m_CorrespondingSourceObject: {fileID: 5674294682757648505, guid: b4f2ed227fdd45f4cbafb3ed64aad8ec, type: 3}
  m_PrefabInstance: {fileID: 7457633286129601772}
  m_PrefabAsset: {fileID: 0}
