%YAML 1.1
%TAG !u! tag:unity3d.com,2011:
--- !u!1001 &4021891535051673876
PrefabInstance:
  m_ObjectHideFlags: 0
  serializedVersion: 2
  m_Modification:
    m_TransformParent: {fileID: 6228153772526715189}
    m_Modifications:
    - target: {fileID: -8679921383154817045, guid: 2853c3b4b74adb74f8aa3eb5e9b24284, type: 3}
      propertyPath: m_RootOrder
      value: 5
      objectReference: {fileID: 0}
    - target: {fileID: -8679921383154817045, guid: 2853c3b4b74adb74f8aa3eb5e9b24284, type: 3}
      propertyPath: m_LocalPosition.x
      value: -0
      objectReference: {fileID: 0}
    - target: {fileID: -8679921383154817045, guid: 2853c3b4b74adb74f8aa3eb5e9b24284, type: 3}
      propertyPath: m_LocalPosition.y
      value: 1
      objectReference: {fileID: 0}
    - target: {fileID: -8679921383154817045, guid: 2853c3b4b74adb74f8aa3eb5e9b24284, type: 3}
      propertyPath: m_LocalPosition.z
      value: -1
      objectReference: {fileID: 0}
    - target: {fileID: -8679921383154817045, guid: 2853c3b4b74adb74f8aa3eb5e9b24284, type: 3}
      propertyPath: m_LocalRotation.w
      value: 0.7071068
      objectReference: {fileID: 0}
    - target: {fileID: -8679921383154817045, guid: 2853c3b4b74adb74f8aa3eb5e9b24284, type: 3}
      propertyPath: m_LocalRotation.x
      value: 0
      objectReference: {fileID: 0}
    - target: {fileID: -8679921383154817045, guid: 2853c3b4b74adb74f8aa3eb5e9b24284, type: 3}
      propertyPath: m_LocalRotation.y
      value: 0.7071068
      objectReference: {fileID: 0}
    - target: {fileID: -8679921383154817045, guid: 2853c3b4b74adb74f8aa3eb5e9b24284, type: 3}
      propertyPath: m_LocalRotation.z
      value: 0
      objectReference: {fileID: 0}
    - target: {fileID: -8679921383154817045, guid: 2853c3b4b74adb74f8aa3eb5e9b24284, type: 3}
      propertyPath: m_LocalEulerAnglesHint.x
      value: 0
      objectReference: {fileID: 0}
    - target: {fileID: -8679921383154817045, guid: 2853c3b4b74adb74f8aa3eb5e9b24284, type: 3}
      propertyPath: m_LocalEulerAnglesHint.y
      value: 90
      objectReference: {fileID: 0}
    - target: {fileID: -8679921383154817045, guid: 2853c3b4b74adb74f8aa3eb5e9b24284, type: 3}
      propertyPath: m_LocalEulerAnglesHint.z
      value: 0
      objectReference: {fileID: 0}
    - target: {fileID: 919132149155446097, guid: 2853c3b4b74adb74f8aa3eb5e9b24284, type: 3}
      propertyPath: m_Name
      value: 4bis
      objectReference: {fileID: 0}
    m_RemovedComponents: []
  m_SourcePrefab: {fileID: 100100000, guid: 2853c3b4b74adb74f8aa3eb5e9b24284, type: 3}
--- !u!1001 &4478686119676959049
PrefabInstance:
  m_ObjectHideFlags: 0
  serializedVersion: 2
  m_Modification:
    m_TransformParent: {fileID: 0}
    m_Modifications:
    - target: {fileID: 758653516743464807, guid: adf89c9af7d2d4746b362d02630c2c3d, type: 3}
      propertyPath: m_LocalScale.y
      value: 0.85
      objectReference: {fileID: 0}
    - target: {fileID: 758653516743464807, guid: adf89c9af7d2d4746b362d02630c2c3d, type: 3}
      propertyPath: m_LocalPosition.y
      value: 2.425
      objectReference: {fileID: 0}
    - target: {fileID: 4497843778647038131, guid: adf89c9af7d2d4746b362d02630c2c3d, type: 3}
      propertyPath: _windowType
      value: 7
      objectReference: {fileID: 0}
    - target: {fileID: 4497843778647038131, guid: adf89c9af7d2d4746b362d02630c2c3d, type: 3}
      propertyPath: _overviewName
      value: Window 4bis
      objectReference: {fileID: 0}
    - target: {fileID: 4497843778647038131, guid: adf89c9af7d2d4746b362d02630c2c3d, type: 3}
      propertyPath: _overviewImage
      value: 
      objectReference: {fileID: 21300000, guid: e12a6674fb18c7c4e8db9e5e8a86994c, type: 3}
    - target: {fileID: 4497843778647038131, guid: adf89c9af7d2d4746b362d02630c2c3d, type: 3}
      propertyPath: WindowHeightInCm
      value: 100
      objectReference: {fileID: 0}
    - target: {fileID: 7368902206669516622, guid: adf89c9af7d2d4746b362d02630c2c3d, type: 3}
      propertyPath: m_IsActive
      value: 0
      objectReference: {fileID: 0}
    - target: {fileID: 7439439877435209526, guid: adf89c9af7d2d4746b362d02630c2c3d, type: 3}
      propertyPath: m_Name
      value: Window4Bis Variant
      objectReference: {fileID: 0}
    - target: {fileID: 7514719492583692412, guid: adf89c9af7d2d4746b362d02630c2c3d, type: 3}
      propertyPath: m_RootOrder
      value: 0
      objectReference: {fileID: 0}
    - target: {fileID: 7514719492583692412, guid: adf89c9af7d2d4746b362d02630c2c3d, type: 3}
      propertyPath: m_LocalPosition.x
      value: 0
      objectReference: {fileID: 0}
    - target: {fileID: 7514719492583692412, guid: adf89c9af7d2d4746b362d02630c2c3d, type: 3}
      propertyPath: m_LocalPosition.y
      value: 0
      objectReference: {fileID: 0}
    - target: {fileID: 7514719492583692412, guid: adf89c9af7d2d4746b362d02630c2c3d, type: 3}
      propertyPath: m_LocalPosition.z
      value: 0
      objectReference: {fileID: 0}
    - target: {fileID: 7514719492583692412, guid: adf89c9af7d2d4746b362d02630c2c3d, type: 3}
      propertyPath: m_LocalRotation.w
      value: 1
      objectReference: {fileID: 0}
    - target: {fileID: 7514719492583692412, guid: adf89c9af7d2d4746b362d02630c2c3d, type: 3}
      propertyPath: m_LocalRotation.x
      value: 0
      objectReference: {fileID: 0}
    - target: {fileID: 7514719492583692412, guid: adf89c9af7d2d4746b362d02630c2c3d, type: 3}
      propertyPath: m_LocalRotation.y
      value: 0
      objectReference: {fileID: 0}
    - target: {fileID: 7514719492583692412, guid: adf89c9af7d2d4746b362d02630c2c3d, type: 3}
      propertyPath: m_LocalRotation.z
      value: 0
      objectReference: {fileID: 0}
    - target: {fileID: 7514719492583692412, guid: adf89c9af7d2d4746b362d02630c2c3d, type: 3}
      propertyPath: m_LocalEulerAnglesHint.x
      value: 0
      objectReference: {fileID: 0}
    - target: {fileID: 7514719492583692412, guid: adf89c9af7d2d4746b362d02630c2c3d, type: 3}
      propertyPath: m_LocalEulerAnglesHint.y
      value: 0
      objectReference: {fileID: 0}
    - target: {fileID: 7514719492583692412, guid: adf89c9af7d2d4746b362d02630c2c3d, type: 3}
      propertyPath: m_LocalEulerAnglesHint.z
      value: 0
      objectReference: {fileID: 0}
    m_RemovedComponents: []
  m_SourcePrefab: {fileID: 100100000, guid: adf89c9af7d2d4746b362d02630c2c3d, type: 3}
--- !u!4 &6228153772526715189 stripped
Transform:
  m_CorrespondingSourceObject: {fileID: 7514719492583692412, guid: adf89c9af7d2d4746b362d02630c2c3d, type: 3}
  m_PrefabInstance: {fileID: 4478686119676959049}
  m_PrefabAsset: {fileID: 0}
