%YAML 1.1
%TAG !u! tag:unity3d.com,2011:
--- !u!1001 &3098433106629780917
PrefabInstance:
  m_ObjectHideFlags: 0
  serializedVersion: 2
  m_Modification:
    m_TransformParent: {fileID: 0}
    m_Modifications:
    - target: {fileID: 389270021683348939, guid: a636de3c1329ce84b89082d675a611c7, type: 3}
      propertyPath: m_LocalScale.y
      value: 1
      objectReference: {fileID: 0}
    - target: {fileID: 389270021683348939, guid: a636de3c1329ce84b89082d675a611c7, type: 3}
      propertyPath: m_LocalPosition.y
      value: 1.5
      objectReference: {fileID: 0}
    - target: {fileID: 973079270818415146, guid: a636de3c1329ce84b89082d675a611c7, type: 3}
      propertyPath: m_LocalScale.y
      value: 0.85
      objectReference: {fileID: 0}
    - target: {fileID: 973079270818415146, guid: a636de3c1329ce84b89082d675a611c7, type: 3}
      propertyPath: m_LocalPosition.y
      value: 2.425
      objectReference: {fileID: 0}
    - target: {fileID: 2205215421261937398, guid: a636de3c1329ce84b89082d675a611c7, type: 3}
      propertyPath: m_LocalScale.y
      value: 1
      objectReference: {fileID: 0}
    - target: {fileID: 2205215421261937398, guid: a636de3c1329ce84b89082d675a611c7, type: 3}
      propertyPath: m_LocalPosition.y
      value: 1.5
      objectReference: {fileID: 0}
    - target: {fileID: 4138201386561097214, guid: a636de3c1329ce84b89082d675a611c7, type: 3}
      propertyPath: _windowType
      value: 10
      objectReference: {fileID: 0}
    - target: {fileID: 4138201386561097214, guid: a636de3c1329ce84b89082d675a611c7, type: 3}
      propertyPath: _overviewName
      value: Window 5bis
      objectReference: {fileID: 0}
    - target: {fileID: 4138201386561097214, guid: a636de3c1329ce84b89082d675a611c7, type: 3}
      propertyPath: _overviewImage
      value: 
      objectReference: {fileID: 21300000, guid: 2a651374361969f4381af011354aad47, type: 3}
    - target: {fileID: 4138201386561097214, guid: a636de3c1329ce84b89082d675a611c7, type: 3}
      propertyPath: WindowHeightInCm
      value: 100
      objectReference: {fileID: 0}
    - target: {fileID: 6933403834372022907, guid: a636de3c1329ce84b89082d675a611c7, type: 3}
      propertyPath: m_Name
      value: Window5Bis Variant
      objectReference: {fileID: 0}
    - target: {fileID: 7237056897306530756, guid: a636de3c1329ce84b89082d675a611c7, type: 3}
      propertyPath: m_IsActive
      value: 0
      objectReference: {fileID: 0}
    - target: {fileID: 8020894143969643825, guid: a636de3c1329ce84b89082d675a611c7, type: 3}
      propertyPath: m_RootOrder
      value: 0
      objectReference: {fileID: 0}
    - target: {fileID: 8020894143969643825, guid: a636de3c1329ce84b89082d675a611c7, type: 3}
      propertyPath: m_LocalPosition.x
      value: 0
      objectReference: {fileID: 0}
    - target: {fileID: 8020894143969643825, guid: a636de3c1329ce84b89082d675a611c7, type: 3}
      propertyPath: m_LocalPosition.y
      value: 0
      objectReference: {fileID: 0}
    - target: {fileID: 8020894143969643825, guid: a636de3c1329ce84b89082d675a611c7, type: 3}
      propertyPath: m_LocalPosition.z
      value: 0
      objectReference: {fileID: 0}
    - target: {fileID: 8020894143969643825, guid: a636de3c1329ce84b89082d675a611c7, type: 3}
      propertyPath: m_LocalRotation.w
      value: 1
      objectReference: {fileID: 0}
    - target: {fileID: 8020894143969643825, guid: a636de3c1329ce84b89082d675a611c7, type: 3}
      propertyPath: m_LocalRotation.x
      value: 0
      objectReference: {fileID: 0}
    - target: {fileID: 8020894143969643825, guid: a636de3c1329ce84b89082d675a611c7, type: 3}
      propertyPath: m_LocalRotation.y
      value: 0
      objectReference: {fileID: 0}
    - target: {fileID: 8020894143969643825, guid: a636de3c1329ce84b89082d675a611c7, type: 3}
      propertyPath: m_LocalRotation.z
      value: 0
      objectReference: {fileID: 0}
    - target: {fileID: 8020894143969643825, guid: a636de3c1329ce84b89082d675a611c7, type: 3}
      propertyPath: m_LocalEulerAnglesHint.x
      value: 0
      objectReference: {fileID: 0}
    - target: {fileID: 8020894143969643825, guid: a636de3c1329ce84b89082d675a611c7, type: 3}
      propertyPath: m_LocalEulerAnglesHint.y
      value: 0
      objectReference: {fileID: 0}
    - target: {fileID: 8020894143969643825, guid: a636de3c1329ce84b89082d675a611c7, type: 3}
      propertyPath: m_LocalEulerAnglesHint.z
      value: 0
      objectReference: {fileID: 0}
    m_RemovedComponents: []
  m_SourcePrefab: {fileID: 100100000, guid: a636de3c1329ce84b89082d675a611c7, type: 3}
--- !u!4 &5021558409760614532 stripped
Transform:
  m_CorrespondingSourceObject: {fileID: 8020894143969643825, guid: a636de3c1329ce84b89082d675a611c7, type: 3}
  m_PrefabInstance: {fileID: 3098433106629780917}
  m_PrefabAsset: {fileID: 0}
--- !u!1001 &7950191439150794402
PrefabInstance:
  m_ObjectHideFlags: 0
  serializedVersion: 2
  m_Modification:
    m_TransformParent: {fileID: 5021558409760614532}
    m_Modifications:
    - target: {fileID: -8679921383154817045, guid: 3e30453369595944d92c5a700c1e0b59, type: 3}
      propertyPath: m_RootOrder
      value: 5
      objectReference: {fileID: 0}
    - target: {fileID: -8679921383154817045, guid: 3e30453369595944d92c5a700c1e0b59, type: 3}
      propertyPath: m_LocalPosition.x
      value: -0
      objectReference: {fileID: 0}
    - target: {fileID: -8679921383154817045, guid: 3e30453369595944d92c5a700c1e0b59, type: 3}
      propertyPath: m_LocalPosition.y
      value: 1
      objectReference: {fileID: 0}
    - target: {fileID: -8679921383154817045, guid: 3e30453369595944d92c5a700c1e0b59, type: 3}
      propertyPath: m_LocalPosition.z
      value: -1
      objectReference: {fileID: 0}
    - target: {fileID: -8679921383154817045, guid: 3e30453369595944d92c5a700c1e0b59, type: 3}
      propertyPath: m_LocalRotation.w
      value: 0.7071068
      objectReference: {fileID: 0}
    - target: {fileID: -8679921383154817045, guid: 3e30453369595944d92c5a700c1e0b59, type: 3}
      propertyPath: m_LocalRotation.x
      value: 0
      objectReference: {fileID: 0}
    - target: {fileID: -8679921383154817045, guid: 3e30453369595944d92c5a700c1e0b59, type: 3}
      propertyPath: m_LocalRotation.y
      value: 0.7071068
      objectReference: {fileID: 0}
    - target: {fileID: -8679921383154817045, guid: 3e30453369595944d92c5a700c1e0b59, type: 3}
      propertyPath: m_LocalRotation.z
      value: 0
      objectReference: {fileID: 0}
    - target: {fileID: -8679921383154817045, guid: 3e30453369595944d92c5a700c1e0b59, type: 3}
      propertyPath: m_LocalEulerAnglesHint.x
      value: 0
      objectReference: {fileID: 0}
    - target: {fileID: -8679921383154817045, guid: 3e30453369595944d92c5a700c1e0b59, type: 3}
      propertyPath: m_LocalEulerAnglesHint.y
      value: 90
      objectReference: {fileID: 0}
    - target: {fileID: -8679921383154817045, guid: 3e30453369595944d92c5a700c1e0b59, type: 3}
      propertyPath: m_LocalEulerAnglesHint.z
      value: 0
      objectReference: {fileID: 0}
    - target: {fileID: 919132149155446097, guid: 3e30453369595944d92c5a700c1e0b59, type: 3}
      propertyPath: m_Name
      value: 5bis
      objectReference: {fileID: 0}
    m_RemovedComponents: []
  m_SourcePrefab: {fileID: 100100000, guid: 3e30453369595944d92c5a700c1e0b59, type: 3}
