%YAML 1.1
%TAG !u! tag:unity3d.com,2011:
--- !u!1001 &2445688009756646728
PrefabInstance:
  m_ObjectHideFlags: 0
  serializedVersion: 2
  m_Modification:
    m_TransformParent: {fileID: 0}
    m_Modifications:
    - target: {fileID: 1773587525373972662, guid: b4f2ed227fdd45f4cbafb3ed64aad8ec, type: 3}
      propertyPath: _windowType
      value: 9
      objectReference: {fileID: 0}
    - target: {fileID: 1773587525373972662, guid: b4f2ed227fdd45f4cbafb3ed64aad8ec, type: 3}
      propertyPath: _overviewName
      value: Window 5
      objectReference: {fileID: 0}
    - target: {fileID: 1773587525373972662, guid: b4f2ed227fdd45f4cbafb3ed64aad8ec, type: 3}
      propertyPath: _overviewImage
      value: 
      objectReference: {fileID: 21300000, guid: 5d92f55e50302e04db44ca244482f070, type: 3}
    - target: {fileID: 1773587525373972662, guid: b4f2ed227fdd45f4cbafb3ed64aad8ec, type: 3}
      propertyPath: WindowWidthInCm
      value: 150
      objectReference: {fileID: 0}
    - target: {fileID: 1773587525373972662, guid: b4f2ed227fdd45f4cbafb3ed64aad8ec, type: 3}
      propertyPath: WindowHeightInCm
      value: 120
      objectReference: {fileID: 0}
    - target: {fileID: 2636333444566554755, guid: b4f2ed227fdd45f4cbafb3ed64aad8ec, type: 3}
      propertyPath: m_LocalScale.y
      value: 1.2
      objectReference: {fileID: 0}
    - target: {fileID: 2636333444566554755, guid: b4f2ed227fdd45f4cbafb3ed64aad8ec, type: 3}
      propertyPath: m_LocalScale.z
      value: 0.25
      objectReference: {fileID: 0}
    - target: {fileID: 2636333444566554755, guid: b4f2ed227fdd45f4cbafb3ed64aad8ec, type: 3}
      propertyPath: m_LocalPosition.y
      value: 1.6
      objectReference: {fileID: 0}
    - target: {fileID: 2636333444566554755, guid: b4f2ed227fdd45f4cbafb3ed64aad8ec, type: 3}
      propertyPath: m_LocalPosition.z
      value: -0.125
      objectReference: {fileID: 0}
    - target: {fileID: 3202558760561647458, guid: b4f2ed227fdd45f4cbafb3ed64aad8ec, type: 3}
      propertyPath: m_LocalScale.y
      value: 0.65
      objectReference: {fileID: 0}
    - target: {fileID: 3202558760561647458, guid: b4f2ed227fdd45f4cbafb3ed64aad8ec, type: 3}
      propertyPath: m_LocalPosition.y
      value: 2.525
      objectReference: {fileID: 0}
    - target: {fileID: 4569653838822107070, guid: b4f2ed227fdd45f4cbafb3ed64aad8ec, type: 3}
      propertyPath: m_LocalScale.y
      value: 1.2
      objectReference: {fileID: 0}
    - target: {fileID: 4569653838822107070, guid: b4f2ed227fdd45f4cbafb3ed64aad8ec, type: 3}
      propertyPath: m_LocalScale.z
      value: 0.25
      objectReference: {fileID: 0}
    - target: {fileID: 4569653838822107070, guid: b4f2ed227fdd45f4cbafb3ed64aad8ec, type: 3}
      propertyPath: m_LocalPosition.y
      value: 1.6
      objectReference: {fileID: 0}
    - target: {fileID: 4569653838822107070, guid: b4f2ed227fdd45f4cbafb3ed64aad8ec, type: 3}
      propertyPath: m_LocalPosition.z
      value: -1.875
      objectReference: {fileID: 0}
    - target: {fileID: 4740234613017378611, guid: b4f2ed227fdd45f4cbafb3ed64aad8ec, type: 3}
      propertyPath: m_Name
      value: Window5 Variant
      objectReference: {fileID: 0}
    - target: {fileID: 5674294682757648505, guid: b4f2ed227fdd45f4cbafb3ed64aad8ec, type: 3}
      propertyPath: m_RootOrder
      value: 0
      objectReference: {fileID: 0}
    - target: {fileID: 5674294682757648505, guid: b4f2ed227fdd45f4cbafb3ed64aad8ec, type: 3}
      propertyPath: m_LocalPosition.x
      value: 0
      objectReference: {fileID: 0}
    - target: {fileID: 5674294682757648505, guid: b4f2ed227fdd45f4cbafb3ed64aad8ec, type: 3}
      propertyPath: m_LocalPosition.y
      value: 0
      objectReference: {fileID: 0}
    - target: {fileID: 5674294682757648505, guid: b4f2ed227fdd45f4cbafb3ed64aad8ec, type: 3}
      propertyPath: m_LocalPosition.z
      value: 0
      objectReference: {fileID: 0}
    - target: {fileID: 5674294682757648505, guid: b4f2ed227fdd45f4cbafb3ed64aad8ec, type: 3}
      propertyPath: m_LocalRotation.w
      value: 1
      objectReference: {fileID: 0}
    - target: {fileID: 5674294682757648505, guid: b4f2ed227fdd45f4cbafb3ed64aad8ec, type: 3}
      propertyPath: m_LocalRotation.x
      value: 0
      objectReference: {fileID: 0}
    - target: {fileID: 5674294682757648505, guid: b4f2ed227fdd45f4cbafb3ed64aad8ec, type: 3}
      propertyPath: m_LocalRotation.y
      value: 0
      objectReference: {fileID: 0}
    - target: {fileID: 5674294682757648505, guid: b4f2ed227fdd45f4cbafb3ed64aad8ec, type: 3}
      propertyPath: m_LocalRotation.z
      value: 0
      objectReference: {fileID: 0}
    - target: {fileID: 5674294682757648505, guid: b4f2ed227fdd45f4cbafb3ed64aad8ec, type: 3}
      propertyPath: m_LocalEulerAnglesHint.x
      value: 0
      objectReference: {fileID: 0}
    - target: {fileID: 5674294682757648505, guid: b4f2ed227fdd45f4cbafb3ed64aad8ec, type: 3}
      propertyPath: m_LocalEulerAnglesHint.y
      value: 0
      objectReference: {fileID: 0}
    - target: {fileID: 5674294682757648505, guid: b4f2ed227fdd45f4cbafb3ed64aad8ec, type: 3}
      propertyPath: m_LocalEulerAnglesHint.z
      value: 0
      objectReference: {fileID: 0}
    m_RemovedComponents: []
  m_SourcePrefab: {fileID: 100100000, guid: b4f2ed227fdd45f4cbafb3ed64aad8ec, type: 3}
--- !u!4 &8020894143969643825 stripped
Transform:
  m_CorrespondingSourceObject: {fileID: 5674294682757648505, guid: b4f2ed227fdd45f4cbafb3ed64aad8ec, type: 3}
  m_PrefabInstance: {fileID: 2445688009756646728}
  m_PrefabAsset: {fileID: 0}
--- !u!1001 &7543064516153716373
PrefabInstance:
  m_ObjectHideFlags: 0
  serializedVersion: 2
  m_Modification:
    m_TransformParent: {fileID: 8020894143969643825}
    m_Modifications:
    - target: {fileID: -8679921383154817045, guid: 60ad07d89fbb574469ab194cd6b1b54f, type: 3}
      propertyPath: m_RootOrder
      value: 4
      objectReference: {fileID: 0}
    - target: {fileID: -8679921383154817045, guid: 60ad07d89fbb574469ab194cd6b1b54f, type: 3}
      propertyPath: m_LocalPosition.x
      value: -0
      objectReference: {fileID: 0}
    - target: {fileID: -8679921383154817045, guid: 60ad07d89fbb574469ab194cd6b1b54f, type: 3}
      propertyPath: m_LocalPosition.y
      value: 1
      objectReference: {fileID: 0}
    - target: {fileID: -8679921383154817045, guid: 60ad07d89fbb574469ab194cd6b1b54f, type: 3}
      propertyPath: m_LocalPosition.z
      value: -1
      objectReference: {fileID: 0}
    - target: {fileID: -8679921383154817045, guid: 60ad07d89fbb574469ab194cd6b1b54f, type: 3}
      propertyPath: m_LocalRotation.w
      value: 0.7071068
      objectReference: {fileID: 0}
    - target: {fileID: -8679921383154817045, guid: 60ad07d89fbb574469ab194cd6b1b54f, type: 3}
      propertyPath: m_LocalRotation.x
      value: 0
      objectReference: {fileID: 0}
    - target: {fileID: -8679921383154817045, guid: 60ad07d89fbb574469ab194cd6b1b54f, type: 3}
      propertyPath: m_LocalRotation.y
      value: 0.7071068
      objectReference: {fileID: 0}
    - target: {fileID: -8679921383154817045, guid: 60ad07d89fbb574469ab194cd6b1b54f, type: 3}
      propertyPath: m_LocalRotation.z
      value: 0
      objectReference: {fileID: 0}
    - target: {fileID: -8679921383154817045, guid: 60ad07d89fbb574469ab194cd6b1b54f, type: 3}
      propertyPath: m_LocalEulerAnglesHint.x
      value: 0
      objectReference: {fileID: 0}
    - target: {fileID: -8679921383154817045, guid: 60ad07d89fbb574469ab194cd6b1b54f, type: 3}
      propertyPath: m_LocalEulerAnglesHint.y
      value: 90
      objectReference: {fileID: 0}
    - target: {fileID: -8679921383154817045, guid: 60ad07d89fbb574469ab194cd6b1b54f, type: 3}
      propertyPath: m_LocalEulerAnglesHint.z
      value: 0
      objectReference: {fileID: 0}
    - target: {fileID: 919132149155446097, guid: 60ad07d89fbb574469ab194cd6b1b54f, type: 3}
      propertyPath: m_Name
      value: 5
      objectReference: {fileID: 0}
    m_RemovedComponents: []
  m_SourcePrefab: {fileID: 100100000, guid: 60ad07d89fbb574469ab194cd6b1b54f, type: 3}
