%YAML 1.1
%TAG !u! tag:unity3d.com,2011:
--- !u!1001 &3001631747543233132
PrefabInstance:
  m_ObjectHideFlags: 0
  serializedVersion: 2
  m_Modification:
    m_TransformParent: {fileID: 0}
    m_Modifications:
    - target: {fileID: 1650497932410011323, guid: 56da6dba834e0b54687313ee3c6a834a, type: 3}
      propertyPath: m_LocalScale.y
      value: 0.85
      objectReference: {fileID: 0}
    - target: {fileID: 1650497932410011323, guid: 56da6dba834e0b54687313ee3c6a834a, type: 3}
      propertyPath: m_LocalPosition.y
      value: 2.425
      objectReference: {fileID: 0}
    - target: {fileID: 2453183423116603759, guid: 56da6dba834e0b54687313ee3c6a834a, type: 3}
      propertyPath: _windowType
      value: 5
      objectReference: {fileID: 0}
    - target: {fileID: 2453183423116603759, guid: 56da6dba834e0b54687313ee3c6a834a, type: 3}
      propertyPath: _overviewName
      value: Window 3bis
      objectReference: {fileID: 0}
    - target: {fileID: 2453183423116603759, guid: 56da6dba834e0b54687313ee3c6a834a, type: 3}
      propertyPath: _overviewImage
      value: 
      objectReference: {fileID: 21300000, guid: 0a32b13337b28cb4f948a430c893c1b3, type: 3}
    - target: {fileID: 2453183423116603759, guid: 56da6dba834e0b54687313ee3c6a834a, type: 3}
      propertyPath: WindowHeightInCm
      value: 100
      objectReference: {fileID: 0}
    - target: {fileID: 3380733987175025563, guid: 56da6dba834e0b54687313ee3c6a834a, type: 3}
      propertyPath: m_IsActive
      value: 0
      objectReference: {fileID: 0}
    - target: {fileID: 8370324552809410976, guid: 56da6dba834e0b54687313ee3c6a834a, type: 3}
      propertyPath: m_RootOrder
      value: 0
      objectReference: {fileID: 0}
    - target: {fileID: 8370324552809410976, guid: 56da6dba834e0b54687313ee3c6a834a, type: 3}
      propertyPath: m_LocalPosition.x
      value: 0
      objectReference: {fileID: 0}
    - target: {fileID: 8370324552809410976, guid: 56da6dba834e0b54687313ee3c6a834a, type: 3}
      propertyPath: m_LocalPosition.y
      value: 0
      objectReference: {fileID: 0}
    - target: {fileID: 8370324552809410976, guid: 56da6dba834e0b54687313ee3c6a834a, type: 3}
      propertyPath: m_LocalPosition.z
      value: 0
      objectReference: {fileID: 0}
    - target: {fileID: 8370324552809410976, guid: 56da6dba834e0b54687313ee3c6a834a, type: 3}
      propertyPath: m_LocalRotation.w
      value: 1
      objectReference: {fileID: 0}
    - target: {fileID: 8370324552809410976, guid: 56da6dba834e0b54687313ee3c6a834a, type: 3}
      propertyPath: m_LocalRotation.x
      value: 0
      objectReference: {fileID: 0}
    - target: {fileID: 8370324552809410976, guid: 56da6dba834e0b54687313ee3c6a834a, type: 3}
      propertyPath: m_LocalRotation.y
      value: 0
      objectReference: {fileID: 0}
    - target: {fileID: 8370324552809410976, guid: 56da6dba834e0b54687313ee3c6a834a, type: 3}
      propertyPath: m_LocalRotation.z
      value: 0
      objectReference: {fileID: 0}
    - target: {fileID: 8370324552809410976, guid: 56da6dba834e0b54687313ee3c6a834a, type: 3}
      propertyPath: m_LocalEulerAnglesHint.x
      value: 0
      objectReference: {fileID: 0}
    - target: {fileID: 8370324552809410976, guid: 56da6dba834e0b54687313ee3c6a834a, type: 3}
      propertyPath: m_LocalEulerAnglesHint.y
      value: 0
      objectReference: {fileID: 0}
    - target: {fileID: 8370324552809410976, guid: 56da6dba834e0b54687313ee3c6a834a, type: 3}
      propertyPath: m_LocalEulerAnglesHint.z
      value: 0
      objectReference: {fileID: 0}
    - target: {fileID: 8889766338267864810, guid: 56da6dba834e0b54687313ee3c6a834a, type: 3}
      propertyPath: m_Name
      value: Window3Bis Variant
      objectReference: {fileID: 0}
    m_RemovedComponents: []
  m_SourcePrefab: {fileID: 100100000, guid: 56da6dba834e0b54687313ee3c6a834a, type: 3}
--- !u!4 &6741517002717135820 stripped
Transform:
  m_CorrespondingSourceObject: {fileID: 8370324552809410976, guid: 56da6dba834e0b54687313ee3c6a834a, type: 3}
  m_PrefabInstance: {fileID: 3001631747543233132}
  m_PrefabAsset: {fileID: 0}
--- !u!1001 &5073748759820326402
PrefabInstance:
  m_ObjectHideFlags: 0
  serializedVersion: 2
  m_Modification:
    m_TransformParent: {fileID: 6741517002717135820}
    m_Modifications:
    - target: {fileID: -8679921383154817045, guid: fb317fb65195a6046a1e1cc7445c276c, type: 3}
      propertyPath: m_RootOrder
      value: 5
      objectReference: {fileID: 0}
    - target: {fileID: -8679921383154817045, guid: fb317fb65195a6046a1e1cc7445c276c, type: 3}
      propertyPath: m_LocalScale.x
      value: 1
      objectReference: {fileID: 0}
    - target: {fileID: -8679921383154817045, guid: fb317fb65195a6046a1e1cc7445c276c, type: 3}
      propertyPath: m_LocalScale.y
      value: 1
      objectReference: {fileID: 0}
    - target: {fileID: -8679921383154817045, guid: fb317fb65195a6046a1e1cc7445c276c, type: 3}
      propertyPath: m_LocalScale.z
      value: 1
      objectReference: {fileID: 0}
    - target: {fileID: -8679921383154817045, guid: fb317fb65195a6046a1e1cc7445c276c, type: 3}
      propertyPath: m_LocalPosition.x
      value: -0
      objectReference: {fileID: 0}
    - target: {fileID: -8679921383154817045, guid: fb317fb65195a6046a1e1cc7445c276c, type: 3}
      propertyPath: m_LocalPosition.y
      value: 1
      objectReference: {fileID: 0}
    - target: {fileID: -8679921383154817045, guid: fb317fb65195a6046a1e1cc7445c276c, type: 3}
      propertyPath: m_LocalPosition.z
      value: -0.5
      objectReference: {fileID: 0}
    - target: {fileID: -8679921383154817045, guid: fb317fb65195a6046a1e1cc7445c276c, type: 3}
      propertyPath: m_LocalRotation.w
      value: 0.7071068
      objectReference: {fileID: 0}
    - target: {fileID: -8679921383154817045, guid: fb317fb65195a6046a1e1cc7445c276c, type: 3}
      propertyPath: m_LocalRotation.x
      value: 0
      objectReference: {fileID: 0}
    - target: {fileID: -8679921383154817045, guid: fb317fb65195a6046a1e1cc7445c276c, type: 3}
      propertyPath: m_LocalRotation.y
      value: 0.7071068
      objectReference: {fileID: 0}
    - target: {fileID: -8679921383154817045, guid: fb317fb65195a6046a1e1cc7445c276c, type: 3}
      propertyPath: m_LocalRotation.z
      value: 0
      objectReference: {fileID: 0}
    - target: {fileID: -8679921383154817045, guid: fb317fb65195a6046a1e1cc7445c276c, type: 3}
      propertyPath: m_LocalEulerAnglesHint.x
      value: 0
      objectReference: {fileID: 0}
    - target: {fileID: -8679921383154817045, guid: fb317fb65195a6046a1e1cc7445c276c, type: 3}
      propertyPath: m_LocalEulerAnglesHint.y
      value: 90
      objectReference: {fileID: 0}
    - target: {fileID: -8679921383154817045, guid: fb317fb65195a6046a1e1cc7445c276c, type: 3}
      propertyPath: m_LocalEulerAnglesHint.z
      value: 0
      objectReference: {fileID: 0}
    - target: {fileID: 919132149155446097, guid: fb317fb65195a6046a1e1cc7445c276c, type: 3}
      propertyPath: m_Name
      value: 3bis
      objectReference: {fileID: 0}
    m_RemovedComponents: []
  m_SourcePrefab: {fileID: 100100000, guid: fb317fb65195a6046a1e1cc7445c276c, type: 3}
