<svg width="26" height="47" viewBox="0 0 26 47" fill="none"
    xmlns="http://www.w3.org/2000/svg">
    <path d="M8.19141 36.4492H12.4219V39.5078H8.19141V44.2891H4.96875V39.5078H0.726562V36.4492H4.96875V31.8672H8.19141V36.4492ZM25.8047 38.9453C25.8047 41.3047 25.3164 43.1094 24.3398 44.3594C23.3633 45.6094 21.9336 46.2344 20.0508 46.2344C18.1914 46.2344 16.7695 45.6211 15.7852 44.3945C14.8008 43.168 14.2969 41.4102 14.2734 39.1211V35.9805C14.2734 33.5977 14.7656 31.7891 15.75 30.5547C16.7422 29.3203 18.168 28.7031 20.0273 28.7031C21.8867 28.7031 23.3086 29.3164 24.293 30.543C25.2773 31.7617 25.7812 33.5156 25.8047 35.8047V38.9453ZM22.418 35.5C22.418 34.0859 22.2227 33.0586 21.832 32.418C21.4492 31.7695 20.8477 31.4453 20.0273 31.4453C19.2305 31.4453 18.6406 31.7539 18.2578 32.3711C17.8828 32.9805 17.6836 33.9375 17.6602 35.2422V39.3906C17.6602 40.7812 17.8477 41.8164 18.2227 42.4961C18.6055 43.168 19.2148 43.5039 20.0508 43.5039C20.8789 43.5039 21.4766 43.1797 21.8438 42.5312C22.2109 41.8828 22.4023 40.8906 22.418 39.5547V35.5Z" fill="black"/>
    <path d="M8.19141 8.44922H12.4219V11.5078H8.19141V16.2891H4.96875V11.5078H0.726562V8.44922H4.96875V3.86719H8.19141V8.44922ZM22.5469 18H19.1602V4.94531L15.1172 6.19922V3.44531L22.1836 0.914062H22.5469V18Z" fill="#828282"/>
</svg>