%YAML 1.1
%TAG !u! tag:unity3d.com,2011:
--- !u!1001 &6402811037294156562
PrefabInstance:
  m_ObjectHideFlags: 0
  serializedVersion: 2
  m_Modification:
    m_TransformParent: {fileID: 0}
    m_Modifications:
    - target: {fileID: 1189915685286786764, guid: fafc01c1bc45da74b8b19461edebff8a, type: 3}
      propertyPath: m_Size.z
      value: 1.99
      objectReference: {fileID: 0}
    - target: {fileID: 1189915685286786764, guid: fafc01c1bc45da74b8b19461edebff8a, type: 3}
      propertyPath: m_Center.z
      value: -1
      objectReference: {fileID: 0}
    - target: {fileID: 4912479102688026479, guid: fafc01c1bc45da74b8b19461edebff8a, type: 3}
      propertyPath: m_RootOrder
      value: 0
      objectReference: {fileID: 0}
    - target: {fileID: 4912479102688026479, guid: fafc01c1bc45da74b8b19461edebff8a, type: 3}
      propertyPath: m_LocalPosition.x
      value: 0
      objectReference: {fileID: 0}
    - target: {fileID: 4912479102688026479, guid: fafc01c1bc45da74b8b19461edebff8a, type: 3}
      propertyPath: m_LocalPosition.y
      value: 0
      objectReference: {fileID: 0}
    - target: {fileID: 4912479102688026479, guid: fafc01c1bc45da74b8b19461edebff8a, type: 3}
      propertyPath: m_LocalPosition.z
      value: 0
      objectReference: {fileID: 0}
    - target: {fileID: 4912479102688026479, guid: fafc01c1bc45da74b8b19461edebff8a, type: 3}
      propertyPath: m_LocalRotation.w
      value: 1
      objectReference: {fileID: 0}
    - target: {fileID: 4912479102688026479, guid: fafc01c1bc45da74b8b19461edebff8a, type: 3}
      propertyPath: m_LocalRotation.x
      value: 0
      objectReference: {fileID: 0}
    - target: {fileID: 4912479102688026479, guid: fafc01c1bc45da74b8b19461edebff8a, type: 3}
      propertyPath: m_LocalRotation.y
      value: 0
      objectReference: {fileID: 0}
    - target: {fileID: 4912479102688026479, guid: fafc01c1bc45da74b8b19461edebff8a, type: 3}
      propertyPath: m_LocalRotation.z
      value: 0
      objectReference: {fileID: 0}
    - target: {fileID: 4912479102688026479, guid: fafc01c1bc45da74b8b19461edebff8a, type: 3}
      propertyPath: m_LocalEulerAnglesHint.x
      value: 0
      objectReference: {fileID: 0}
    - target: {fileID: 4912479102688026479, guid: fafc01c1bc45da74b8b19461edebff8a, type: 3}
      propertyPath: m_LocalEulerAnglesHint.y
      value: 0
      objectReference: {fileID: 0}
    - target: {fileID: 4912479102688026479, guid: fafc01c1bc45da74b8b19461edebff8a, type: 3}
      propertyPath: m_LocalEulerAnglesHint.z
      value: 0
      objectReference: {fileID: 0}
    - target: {fileID: 5137862289194866419, guid: fafc01c1bc45da74b8b19461edebff8a, type: 3}
      propertyPath: m_LocalScale.z
      value: 2
      objectReference: {fileID: 0}
    - target: {fileID: 5137862289194866419, guid: fafc01c1bc45da74b8b19461edebff8a, type: 3}
      propertyPath: m_LocalPosition.z
      value: -1
      objectReference: {fileID: 0}
    - target: {fileID: 5429994249577754661, guid: fafc01c1bc45da74b8b19461edebff8a, type: 3}
      propertyPath: m_Name
      value: DefaultDoorx2 Variant
      objectReference: {fileID: 0}
    m_RemovedComponents: []
  m_SourcePrefab: {fileID: 100100000, guid: fafc01c1bc45da74b8b19461edebff8a, type: 3}
