%YAML 1.1
%TAG !u! tag:unity3d.com,2011:
--- !u!1001 &6487511938738742066
PrefabInstance:
  m_ObjectHideFlags: 0
  serializedVersion: 2
  m_Modification:
    m_TransformParent: {fileID: 0}
    m_Modifications:
    - target: {fileID: 1719532084214426589, guid: 5be00da585f7d0941ab0715302bada9b, type: 3}
      propertyPath: _doorType
      value: 13
      objectReference: {fileID: 0}
    - target: {fileID: 1719532084214426589, guid: 5be00da585f7d0941ab0715302bada9b, type: 3}
      propertyPath: _overviewName
      value: Door 31
      objectReference: {fileID: 0}
    - target: {fileID: 1719532084214426589, guid: 5be00da585f7d0941ab0715302bada9b, type: 3}
      propertyPath: _overviewImage
      value: 
      objectReference: {fileID: 21300000, guid: f93dbdb2d1541f0439344ecd0c2aaf76, type: 3}
    - target: {fileID: 3849889655000190942, guid: 5be00da585f7d0941ab0715302bada9b, type: 3}
      propertyPath: m_LocalScale.y
      value: 2.45
      objectReference: {fileID: 0}
    - target: {fileID: 3849889655000190942, guid: 5be00da585f7d0941ab0715302bada9b, type: 3}
      propertyPath: m_LocalPosition.y
      value: 1.225
      objectReference: {fileID: 0}
    - target: {fileID: 4245121084872872049, guid: 5be00da585f7d0941ab0715302bada9b, type: 3}
      propertyPath: m_IsActive
      value: 0
      objectReference: {fileID: 0}
    - target: {fileID: 6058191685961972329, guid: 5be00da585f7d0941ab0715302bada9b, type: 3}
      propertyPath: m_LocalScale.y
      value: 0.4
      objectReference: {fileID: 0}
    - target: {fileID: 6058191685961972329, guid: 5be00da585f7d0941ab0715302bada9b, type: 3}
      propertyPath: m_LocalPosition.y
      value: 2.65
      objectReference: {fileID: 0}
    - target: {fileID: 6301378161382192117, guid: 5be00da585f7d0941ab0715302bada9b, type: 3}
      propertyPath: m_RootOrder
      value: 0
      objectReference: {fileID: 0}
    - target: {fileID: 6301378161382192117, guid: 5be00da585f7d0941ab0715302bada9b, type: 3}
      propertyPath: m_LocalPosition.x
      value: 0
      objectReference: {fileID: 0}
    - target: {fileID: 6301378161382192117, guid: 5be00da585f7d0941ab0715302bada9b, type: 3}
      propertyPath: m_LocalPosition.y
      value: 0
      objectReference: {fileID: 0}
    - target: {fileID: 6301378161382192117, guid: 5be00da585f7d0941ab0715302bada9b, type: 3}
      propertyPath: m_LocalPosition.z
      value: 0
      objectReference: {fileID: 0}
    - target: {fileID: 6301378161382192117, guid: 5be00da585f7d0941ab0715302bada9b, type: 3}
      propertyPath: m_LocalRotation.w
      value: 1
      objectReference: {fileID: 0}
    - target: {fileID: 6301378161382192117, guid: 5be00da585f7d0941ab0715302bada9b, type: 3}
      propertyPath: m_LocalRotation.x
      value: 0
      objectReference: {fileID: 0}
    - target: {fileID: 6301378161382192117, guid: 5be00da585f7d0941ab0715302bada9b, type: 3}
      propertyPath: m_LocalRotation.y
      value: 0
      objectReference: {fileID: 0}
    - target: {fileID: 6301378161382192117, guid: 5be00da585f7d0941ab0715302bada9b, type: 3}
      propertyPath: m_LocalRotation.z
      value: 0
      objectReference: {fileID: 0}
    - target: {fileID: 6301378161382192117, guid: 5be00da585f7d0941ab0715302bada9b, type: 3}
      propertyPath: m_LocalEulerAnglesHint.x
      value: 0
      objectReference: {fileID: 0}
    - target: {fileID: 6301378161382192117, guid: 5be00da585f7d0941ab0715302bada9b, type: 3}
      propertyPath: m_LocalEulerAnglesHint.y
      value: 0
      objectReference: {fileID: 0}
    - target: {fileID: 6301378161382192117, guid: 5be00da585f7d0941ab0715302bada9b, type: 3}
      propertyPath: m_LocalEulerAnglesHint.z
      value: 0
      objectReference: {fileID: 0}
    - target: {fileID: 6342590800321830079, guid: 5be00da585f7d0941ab0715302bada9b, type: 3}
      propertyPath: m_Name
      value: Door31 Variant
      objectReference: {fileID: 0}
    - target: {fileID: 8622853642240769742, guid: 5be00da585f7d0941ab0715302bada9b, type: 3}
      propertyPath: m_LocalScale.y
      value: 2.45
      objectReference: {fileID: 0}
    - target: {fileID: 8622853642240769742, guid: 5be00da585f7d0941ab0715302bada9b, type: 3}
      propertyPath: m_LocalPosition.y
      value: 1.225
      objectReference: {fileID: 0}
    m_RemovedComponents: []
  m_SourcePrefab: {fileID: 100100000, guid: 5be00da585f7d0941ab0715302bada9b, type: 3}
--- !u!4 &971295039881089223 stripped
Transform:
  m_CorrespondingSourceObject: {fileID: 6301378161382192117, guid: 5be00da585f7d0941ab0715302bada9b, type: 3}
  m_PrefabInstance: {fileID: 6487511938738742066}
  m_PrefabAsset: {fileID: 0}
--- !u!1001 &7534236938853020516
PrefabInstance:
  m_ObjectHideFlags: 0
  serializedVersion: 2
  m_Modification:
    m_TransformParent: {fileID: 971295039881089223}
    m_Modifications:
    - target: {fileID: -8679921383154817045, guid: 6cb9c423d81f17445856b573bacd4904, type: 3}
      propertyPath: m_RootOrder
      value: 4
      objectReference: {fileID: 0}
    - target: {fileID: -8679921383154817045, guid: 6cb9c423d81f17445856b573bacd4904, type: 3}
      propertyPath: m_LocalPosition.x
      value: -0
      objectReference: {fileID: 0}
    - target: {fileID: -8679921383154817045, guid: 6cb9c423d81f17445856b573bacd4904, type: 3}
      propertyPath: m_LocalPosition.y
      value: 0
      objectReference: {fileID: 0}
    - target: {fileID: -8679921383154817045, guid: 6cb9c423d81f17445856b573bacd4904, type: 3}
      propertyPath: m_LocalPosition.z
      value: -1
      objectReference: {fileID: 0}
    - target: {fileID: -8679921383154817045, guid: 6cb9c423d81f17445856b573bacd4904, type: 3}
      propertyPath: m_LocalRotation.w
      value: 0.7071068
      objectReference: {fileID: 0}
    - target: {fileID: -8679921383154817045, guid: 6cb9c423d81f17445856b573bacd4904, type: 3}
      propertyPath: m_LocalRotation.x
      value: 0
      objectReference: {fileID: 0}
    - target: {fileID: -8679921383154817045, guid: 6cb9c423d81f17445856b573bacd4904, type: 3}
      propertyPath: m_LocalRotation.y
      value: 0.7071068
      objectReference: {fileID: 0}
    - target: {fileID: -8679921383154817045, guid: 6cb9c423d81f17445856b573bacd4904, type: 3}
      propertyPath: m_LocalRotation.z
      value: 0
      objectReference: {fileID: 0}
    - target: {fileID: -8679921383154817045, guid: 6cb9c423d81f17445856b573bacd4904, type: 3}
      propertyPath: m_LocalEulerAnglesHint.x
      value: 0
      objectReference: {fileID: 0}
    - target: {fileID: -8679921383154817045, guid: 6cb9c423d81f17445856b573bacd4904, type: 3}
      propertyPath: m_LocalEulerAnglesHint.y
      value: 90
      objectReference: {fileID: 0}
    - target: {fileID: -8679921383154817045, guid: 6cb9c423d81f17445856b573bacd4904, type: 3}
      propertyPath: m_LocalEulerAnglesHint.z
      value: 0
      objectReference: {fileID: 0}
    - target: {fileID: 919132149155446097, guid: 6cb9c423d81f17445856b573bacd4904, type: 3}
      propertyPath: m_Name
      value: 31
      objectReference: {fileID: 0}
    m_RemovedComponents: []
  m_SourcePrefab: {fileID: 100100000, guid: 6cb9c423d81f17445856b573bacd4904, type: 3}
