%YAML 1.1
%TAG !u! tag:unity3d.com,2011:
--- !u!54 &6864173956747836546
Rigidbody:
  m_ObjectHideFlags: 0
  m_CorrespondingSourceObject: {fileID: 0}
  m_PrefabInstance: {fileID: 0}
  m_PrefabAsset: {fileID: 0}
  m_GameObject: {fileID: 4918025993887452724}
  serializedVersion: 2
  m_Mass: 1
  m_Drag: 0
  m_AngularDrag: 0.05
  m_UseGravity: 0
  m_IsKinematic: 1
  m_Interpolate: 0
  m_Constraints: 0
  m_CollisionDetection: 0
--- !u!1001 &1088571029727641105
PrefabInstance:
  m_ObjectHideFlags: 0
  serializedVersion: 2
  m_Modification:
    m_TransformParent: {fileID: 0}
    m_Modifications:
    - target: {fileID: 190699909584144016, guid: fafc01c1bc45da74b8b19461edebff8a, type: 3}
      propertyPath: m_IsActive
      value: 0
      objectReference: {fileID: 0}
    - target: {fileID: 325207964226275143, guid: fafc01c1bc45da74b8b19461edebff8a, type: 3}
      propertyPath: _doorType
      value: 15
      objectReference: {fileID: 0}
    - target: {fileID: 325207964226275143, guid: fafc01c1bc45da74b8b19461edebff8a, type: 3}
      propertyPath: DoorWidthInCm
      value: 100
      objectReference: {fileID: 0}
    - target: {fileID: 325207964226275143, guid: fafc01c1bc45da74b8b19461edebff8a, type: 3}
      propertyPath: _overviewName
      value: Open wall
      objectReference: {fileID: 0}
    - target: {fileID: 325207964226275143, guid: fafc01c1bc45da74b8b19461edebff8a, type: 3}
      propertyPath: DoorHeightInCm
      value: 285
      objectReference: {fileID: 0}
    - target: {fileID: 325207964226275143, guid: fafc01c1bc45da74b8b19461edebff8a, type: 3}
      propertyPath: _overviewImage
      value: 
      objectReference: {fileID: 21300000, guid: 7e845ad5739811d45bf348f60f64384f, type: 3}
    - target: {fileID: 1189915685286786764, guid: fafc01c1bc45da74b8b19461edebff8a, type: 3}
      propertyPath: m_Size.x
      value: 0.05
      objectReference: {fileID: 0}
    - target: {fileID: 1189915685286786764, guid: fafc01c1bc45da74b8b19461edebff8a, type: 3}
      propertyPath: m_Size.y
      value: 2.8
      objectReference: {fileID: 0}
    - target: {fileID: 1189915685286786764, guid: fafc01c1bc45da74b8b19461edebff8a, type: 3}
      propertyPath: m_Size.z
      value: 0.99
      objectReference: {fileID: 0}
    - target: {fileID: 1189915685286786764, guid: fafc01c1bc45da74b8b19461edebff8a, type: 3}
      propertyPath: m_Center.y
      value: 1.4
      objectReference: {fileID: 0}
    - target: {fileID: 4912479102688026479, guid: fafc01c1bc45da74b8b19461edebff8a, type: 3}
      propertyPath: m_RootOrder
      value: 0
      objectReference: {fileID: 0}
    - target: {fileID: 4912479102688026479, guid: fafc01c1bc45da74b8b19461edebff8a, type: 3}
      propertyPath: m_LocalPosition.x
      value: 0
      objectReference: {fileID: 0}
    - target: {fileID: 4912479102688026479, guid: fafc01c1bc45da74b8b19461edebff8a, type: 3}
      propertyPath: m_LocalPosition.y
      value: 0
      objectReference: {fileID: 0}
    - target: {fileID: 4912479102688026479, guid: fafc01c1bc45da74b8b19461edebff8a, type: 3}
      propertyPath: m_LocalPosition.z
      value: 0
      objectReference: {fileID: 0}
    - target: {fileID: 4912479102688026479, guid: fafc01c1bc45da74b8b19461edebff8a, type: 3}
      propertyPath: m_LocalRotation.w
      value: 1
      objectReference: {fileID: 0}
    - target: {fileID: 4912479102688026479, guid: fafc01c1bc45da74b8b19461edebff8a, type: 3}
      propertyPath: m_LocalRotation.x
      value: 0
      objectReference: {fileID: 0}
    - target: {fileID: 4912479102688026479, guid: fafc01c1bc45da74b8b19461edebff8a, type: 3}
      propertyPath: m_LocalRotation.y
      value: 0
      objectReference: {fileID: 0}
    - target: {fileID: 4912479102688026479, guid: fafc01c1bc45da74b8b19461edebff8a, type: 3}
      propertyPath: m_LocalRotation.z
      value: 0
      objectReference: {fileID: 0}
    - target: {fileID: 4912479102688026479, guid: fafc01c1bc45da74b8b19461edebff8a, type: 3}
      propertyPath: m_LocalEulerAnglesHint.x
      value: 0
      objectReference: {fileID: 0}
    - target: {fileID: 4912479102688026479, guid: fafc01c1bc45da74b8b19461edebff8a, type: 3}
      propertyPath: m_LocalEulerAnglesHint.y
      value: 0
      objectReference: {fileID: 0}
    - target: {fileID: 4912479102688026479, guid: fafc01c1bc45da74b8b19461edebff8a, type: 3}
      propertyPath: m_LocalEulerAnglesHint.z
      value: 0
      objectReference: {fileID: 0}
    - target: {fileID: 5429994249577754661, guid: fafc01c1bc45da74b8b19461edebff8a, type: 3}
      propertyPath: m_Name
      value: OpenWall Variant
      objectReference: {fileID: 0}
    m_RemovedComponents: []
  m_SourcePrefab: {fileID: 100100000, guid: fafc01c1bc45da74b8b19461edebff8a, type: 3}
--- !u!1 &4918025993887452724 stripped
GameObject:
  m_CorrespondingSourceObject: {fileID: 5429994249577754661, guid: fafc01c1bc45da74b8b19461edebff8a, type: 3}
  m_PrefabInstance: {fileID: 1088571029727641105}
  m_PrefabAsset: {fileID: 0}
