%YAML 1.1
%TAG !u! tag:unity3d.com,2011:
--- !u!1 &5529919755434002237
GameObject:
  m_ObjectHideFlags: 0
  m_CorrespondingSourceObject: {fileID: 0}
  m_PrefabInstance: {fileID: 0}
  m_PrefabAsset: {fileID: 0}
  serializedVersion: 6
  m_Component:
  - component: {fileID: 4994185764317420310}
  m_Layer: 0
  m_Name: ShowerTarget
  m_TagString: Untagged
  m_Icon: {fileID: 0}
  m_NavMeshLayer: 0
  m_StaticEditorFlags: 0
  m_IsActive: 1
--- !u!4 &4994185764317420310
Transform:
  m_ObjectHideFlags: 0
  m_CorrespondingSourceObject: {fileID: 0}
  m_PrefabInstance: {fileID: 0}
  m_PrefabAsset: {fileID: 0}
  m_GameObject: {fileID: 5529919755434002237}
  m_LocalRotation: {x: -0, y: -1, z: -0, w: 0}
  m_LocalPosition: {x: -0.06599993, y: 0, z: -0.631}
  m_LocalScale: {x: 1, y: 1, z: 1}
  m_Children: []
  m_Father: {fileID: 4251059735788013066}
  m_RootOrder: 1
  m_LocalEulerAnglesHint: {x: 0, y: 0, z: 0}
--- !u!1001 &831391093506708107
PrefabInstance:
  m_ObjectHideFlags: 0
  serializedVersion: 2
  m_Modification:
    m_TransformParent: {fileID: 1770706448464387366}
    m_Modifications:
    - target: {fileID: 7920447827527944148, guid: 34bec0f90cc176149a0d5fd8f28731cd, type: 3}
      propertyPath: m_RootOrder
      value: 6
      objectReference: {fileID: 0}
    - target: {fileID: 7920447827527944148, guid: 34bec0f90cc176149a0d5fd8f28731cd, type: 3}
      propertyPath: m_LocalPosition.x
      value: 0.278
      objectReference: {fileID: 0}
    - target: {fileID: 7920447827527944148, guid: 34bec0f90cc176149a0d5fd8f28731cd, type: 3}
      propertyPath: m_LocalPosition.y
      value: 0
      objectReference: {fileID: 0}
    - target: {fileID: 7920447827527944148, guid: 34bec0f90cc176149a0d5fd8f28731cd, type: 3}
      propertyPath: m_LocalPosition.z
      value: -0.906
      objectReference: {fileID: 0}
    - target: {fileID: 7920447827527944148, guid: 34bec0f90cc176149a0d5fd8f28731cd, type: 3}
      propertyPath: m_LocalRotation.w
      value: 0.7071068
      objectReference: {fileID: 0}
    - target: {fileID: 7920447827527944148, guid: 34bec0f90cc176149a0d5fd8f28731cd, type: 3}
      propertyPath: m_LocalRotation.x
      value: 0
      objectReference: {fileID: 0}
    - target: {fileID: 7920447827527944148, guid: 34bec0f90cc176149a0d5fd8f28731cd, type: 3}
      propertyPath: m_LocalRotation.y
      value: -0.7071068
      objectReference: {fileID: 0}
    - target: {fileID: 7920447827527944148, guid: 34bec0f90cc176149a0d5fd8f28731cd, type: 3}
      propertyPath: m_LocalRotation.z
      value: 0
      objectReference: {fileID: 0}
    - target: {fileID: 7920447827527944148, guid: 34bec0f90cc176149a0d5fd8f28731cd, type: 3}
      propertyPath: m_LocalEulerAnglesHint.x
      value: 0
      objectReference: {fileID: 0}
    - target: {fileID: 7920447827527944148, guid: 34bec0f90cc176149a0d5fd8f28731cd, type: 3}
      propertyPath: m_LocalEulerAnglesHint.y
      value: -90
      objectReference: {fileID: 0}
    - target: {fileID: 7920447827527944148, guid: 34bec0f90cc176149a0d5fd8f28731cd, type: 3}
      propertyPath: m_LocalEulerAnglesHint.z
      value: 0
      objectReference: {fileID: 0}
    - target: {fileID: 8133781587698556158, guid: 34bec0f90cc176149a0d5fd8f28731cd, type: 3}
      propertyPath: _target
      value: 
      objectReference: {fileID: 4994185764317420310}
    - target: {fileID: 8838290589189879896, guid: 34bec0f90cc176149a0d5fd8f28731cd, type: 3}
      propertyPath: m_Name
      value: Shower
      objectReference: {fileID: 0}
    m_RemovedComponents: []
  m_SourcePrefab: {fileID: 100100000, guid: 34bec0f90cc176149a0d5fd8f28731cd, type: 3}
--- !u!1001 &7621657382985321229
PrefabInstance:
  m_ObjectHideFlags: 0
  serializedVersion: 2
  m_Modification:
    m_TransformParent: {fileID: 0}
    m_Modifications:
    - target: {fileID: 12173746793747022, guid: 33d9614768ddd90448c0b4ae735d763f, type: 3}
      propertyPath: _moduleType
      value: 5
      objectReference: {fileID: 0}
    - target: {fileID: 12173746793747022, guid: 33d9614768ddd90448c0b4ae735d763f, type: 3}
      propertyPath: _defaultName
      value: Bathroom 2
      objectReference: {fileID: 0}
    - target: {fileID: 12173746793747022, guid: 33d9614768ddd90448c0b4ae735d763f, type: 3}
      propertyPath: _overviewImage
      value: 
      objectReference: {fileID: 21300000, guid: 3bcc1abb264c0ba46bb967db441341b5, type: 3}
    - target: {fileID: 8167068055736964651, guid: 33d9614768ddd90448c0b4ae735d763f, type: 3}
      propertyPath: m_RootOrder
      value: 0
      objectReference: {fileID: 0}
    - target: {fileID: 8167068055736964651, guid: 33d9614768ddd90448c0b4ae735d763f, type: 3}
      propertyPath: m_LocalPosition.x
      value: 0
      objectReference: {fileID: 0}
    - target: {fileID: 8167068055736964651, guid: 33d9614768ddd90448c0b4ae735d763f, type: 3}
      propertyPath: m_LocalPosition.y
      value: 0
      objectReference: {fileID: 0}
    - target: {fileID: 8167068055736964651, guid: 33d9614768ddd90448c0b4ae735d763f, type: 3}
      propertyPath: m_LocalPosition.z
      value: 0
      objectReference: {fileID: 0}
    - target: {fileID: 8167068055736964651, guid: 33d9614768ddd90448c0b4ae735d763f, type: 3}
      propertyPath: m_LocalRotation.w
      value: 1
      objectReference: {fileID: 0}
    - target: {fileID: 8167068055736964651, guid: 33d9614768ddd90448c0b4ae735d763f, type: 3}
      propertyPath: m_LocalRotation.x
      value: -0
      objectReference: {fileID: 0}
    - target: {fileID: 8167068055736964651, guid: 33d9614768ddd90448c0b4ae735d763f, type: 3}
      propertyPath: m_LocalRotation.y
      value: -0
      objectReference: {fileID: 0}
    - target: {fileID: 8167068055736964651, guid: 33d9614768ddd90448c0b4ae735d763f, type: 3}
      propertyPath: m_LocalRotation.z
      value: -0
      objectReference: {fileID: 0}
    - target: {fileID: 8167068055736964651, guid: 33d9614768ddd90448c0b4ae735d763f, type: 3}
      propertyPath: m_LocalEulerAnglesHint.x
      value: 0
      objectReference: {fileID: 0}
    - target: {fileID: 8167068055736964651, guid: 33d9614768ddd90448c0b4ae735d763f, type: 3}
      propertyPath: m_LocalEulerAnglesHint.y
      value: 0
      objectReference: {fileID: 0}
    - target: {fileID: 8167068055736964651, guid: 33d9614768ddd90448c0b4ae735d763f, type: 3}
      propertyPath: m_LocalEulerAnglesHint.z
      value: 0
      objectReference: {fileID: 0}
    - target: {fileID: 8469992474102077791, guid: 33d9614768ddd90448c0b4ae735d763f, type: 3}
      propertyPath: m_Name
      value: BathRoomShower Variant
      objectReference: {fileID: 0}
    m_RemovedComponents: []
  m_SourcePrefab: {fileID: 100100000, guid: 33d9614768ddd90448c0b4ae735d763f, type: 3}
--- !u!4 &1770706448464387366 stripped
Transform:
  m_CorrespondingSourceObject: {fileID: 8167068055736964651, guid: 33d9614768ddd90448c0b4ae735d763f, type: 3}
  m_PrefabInstance: {fileID: 7621657382985321229}
  m_PrefabAsset: {fileID: 0}
--- !u!4 &4251059735788013066 stripped
Transform:
  m_CorrespondingSourceObject: {fileID: 5997489911082421511, guid: 33d9614768ddd90448c0b4ae735d763f, type: 3}
  m_PrefabInstance: {fileID: 7621657382985321229}
  m_PrefabAsset: {fileID: 0}
--- !u!1001 &7771317756069939274
PrefabInstance:
  m_ObjectHideFlags: 0
  serializedVersion: 2
  m_Modification:
    m_TransformParent: {fileID: 1770706448464387366}
    m_Modifications:
    - target: {fileID: 6339755581394963067, guid: c35a95985b50579498cfd289912a6826, type: 3}
      propertyPath: m_RootOrder
      value: 5
      objectReference: {fileID: 0}
    - target: {fileID: 6339755581394963067, guid: c35a95985b50579498cfd289912a6826, type: 3}
      propertyPath: m_LocalPosition.z
      value: 1.36
      objectReference: {fileID: 0}
    - target: {fileID: 6339755581394963067, guid: c35a95985b50579498cfd289912a6826, type: 3}
      propertyPath: m_LocalRotation.w
      value: 0.7071068
      objectReference: {fileID: 0}
    - target: {fileID: 6339755581394963067, guid: c35a95985b50579498cfd289912a6826, type: 3}
      propertyPath: m_LocalRotation.x
      value: -0
      objectReference: {fileID: 0}
    - target: {fileID: 6339755581394963067, guid: c35a95985b50579498cfd289912a6826, type: 3}
      propertyPath: m_LocalRotation.y
      value: 0.7071068
      objectReference: {fileID: 0}
    - target: {fileID: 6339755581394963067, guid: c35a95985b50579498cfd289912a6826, type: 3}
      propertyPath: m_LocalRotation.z
      value: -0
      objectReference: {fileID: 0}
    - target: {fileID: 6339755581394963067, guid: c35a95985b50579498cfd289912a6826, type: 3}
      propertyPath: m_LocalEulerAnglesHint.y
      value: 180
      objectReference: {fileID: 0}
    m_RemovedComponents: []
  m_SourcePrefab: {fileID: 100100000, guid: c35a95985b50579498cfd289912a6826, type: 3}
