%YAML 1.1
%TAG !u! tag:unity3d.com,2011:
--- !u!1001 &3001357080005566915
PrefabInstance:
  m_ObjectHideFlags: 0
  serializedVersion: 2
  m_Modification:
    m_TransformParent: {fileID: 4015724615185326859}
    m_Modifications:
    - target: {fileID: 1056660037999822653, guid: a9baa07b739aa9748b79b231d1dbe6de, type: 3}
      propertyPath: m_RootOrder
      value: 5
      objectReference: {fileID: 0}
    - target: {fileID: 1056660037999822653, guid: a9baa07b739aa9748b79b231d1dbe6de, type: 3}
      propertyPath: m_LocalPosition.x
      value: -1.862
      objectReference: {fileID: 0}
    - target: {fileID: 1056660037999822653, guid: a9baa07b739aa9748b79b231d1dbe6de, type: 3}
      propertyPath: m_LocalPosition.y
      value: 0
      objectReference: {fileID: 0}
    - target: {fileID: 1056660037999822653, guid: a9baa07b739aa9748b79b231d1dbe6de, type: 3}
      propertyPath: m_LocalPosition.z
      value: 0.957
      objectReference: {fileID: 0}
    - target: {fileID: 1056660037999822653, guid: a9baa07b739aa9748b79b231d1dbe6de, type: 3}
      propertyPath: m_LocalRotation.w
      value: 1
      objectReference: {fileID: 0}
    - target: {fileID: 1056660037999822653, guid: a9baa07b739aa9748b79b231d1dbe6de, type: 3}
      propertyPath: m_LocalRotation.x
      value: 0
      objectReference: {fileID: 0}
    - target: {fileID: 1056660037999822653, guid: a9baa07b739aa9748b79b231d1dbe6de, type: 3}
      propertyPath: m_LocalRotation.y
      value: 0
      objectReference: {fileID: 0}
    - target: {fileID: 1056660037999822653, guid: a9baa07b739aa9748b79b231d1dbe6de, type: 3}
      propertyPath: m_LocalRotation.z
      value: 0
      objectReference: {fileID: 0}
    - target: {fileID: 1056660037999822653, guid: a9baa07b739aa9748b79b231d1dbe6de, type: 3}
      propertyPath: m_LocalEulerAnglesHint.x
      value: 0
      objectReference: {fileID: 0}
    - target: {fileID: 1056660037999822653, guid: a9baa07b739aa9748b79b231d1dbe6de, type: 3}
      propertyPath: m_LocalEulerAnglesHint.y
      value: 0
      objectReference: {fileID: 0}
    - target: {fileID: 1056660037999822653, guid: a9baa07b739aa9748b79b231d1dbe6de, type: 3}
      propertyPath: m_LocalEulerAnglesHint.z
      value: 0
      objectReference: {fileID: 0}
    - target: {fileID: 9092906568588395889, guid: a9baa07b739aa9748b79b231d1dbe6de, type: 3}
      propertyPath: m_Name
      value: CurvedStairs
      objectReference: {fileID: 0}
    m_RemovedComponents: []
  m_SourcePrefab: {fileID: 100100000, guid: a9baa07b739aa9748b79b231d1dbe6de, type: 3}
--- !u!1001 &5111015354881914144
PrefabInstance:
  m_ObjectHideFlags: 0
  serializedVersion: 2
  m_Modification:
    m_TransformParent: {fileID: 0}
    m_Modifications:
    - target: {fileID: 12173746793747022, guid: 33d9614768ddd90448c0b4ae735d763f, type: 3}
      propertyPath: _width
      value: 3
      objectReference: {fileID: 0}
    - target: {fileID: 12173746793747022, guid: 33d9614768ddd90448c0b4ae735d763f, type: 3}
      propertyPath: _length
      value: 2
      objectReference: {fileID: 0}
    - target: {fileID: 12173746793747022, guid: 33d9614768ddd90448c0b4ae735d763f, type: 3}
      propertyPath: _minWidth
      value: 2
      objectReference: {fileID: 0}
    - target: {fileID: 12173746793747022, guid: 33d9614768ddd90448c0b4ae735d763f, type: 3}
      propertyPath: _minLength
      value: 4
      objectReference: {fileID: 0}
    - target: {fileID: 12173746793747022, guid: 33d9614768ddd90448c0b4ae735d763f, type: 3}
      propertyPath: _moduleType
      value: 7
      objectReference: {fileID: 0}
    - target: {fileID: 12173746793747022, guid: 33d9614768ddd90448c0b4ae735d763f, type: 3}
      propertyPath: _defaultName
      value: Hall
      objectReference: {fileID: 0}
    - target: {fileID: 12173746793747022, guid: 33d9614768ddd90448c0b4ae735d763f, type: 3}
      propertyPath: _defaultWidth
      value: 2
      objectReference: {fileID: 0}
    - target: {fileID: 12173746793747022, guid: 33d9614768ddd90448c0b4ae735d763f, type: 3}
      propertyPath: _defaultLength
      value: 4
      objectReference: {fileID: 0}
    - target: {fileID: 12173746793747022, guid: 33d9614768ddd90448c0b4ae735d763f, type: 3}
      propertyPath: _overviewImage
      value: 
      objectReference: {fileID: 21300000, guid: de1b40825a3871443812e35951991c6f, type: 3}
    - target: {fileID: 8167068055736964651, guid: 33d9614768ddd90448c0b4ae735d763f, type: 3}
      propertyPath: m_RootOrder
      value: 0
      objectReference: {fileID: 0}
    - target: {fileID: 8167068055736964651, guid: 33d9614768ddd90448c0b4ae735d763f, type: 3}
      propertyPath: m_LocalPosition.x
      value: 0
      objectReference: {fileID: 0}
    - target: {fileID: 8167068055736964651, guid: 33d9614768ddd90448c0b4ae735d763f, type: 3}
      propertyPath: m_LocalPosition.y
      value: 0
      objectReference: {fileID: 0}
    - target: {fileID: 8167068055736964651, guid: 33d9614768ddd90448c0b4ae735d763f, type: 3}
      propertyPath: m_LocalPosition.z
      value: 0
      objectReference: {fileID: 0}
    - target: {fileID: 8167068055736964651, guid: 33d9614768ddd90448c0b4ae735d763f, type: 3}
      propertyPath: m_LocalRotation.w
      value: 1
      objectReference: {fileID: 0}
    - target: {fileID: 8167068055736964651, guid: 33d9614768ddd90448c0b4ae735d763f, type: 3}
      propertyPath: m_LocalRotation.x
      value: -0
      objectReference: {fileID: 0}
    - target: {fileID: 8167068055736964651, guid: 33d9614768ddd90448c0b4ae735d763f, type: 3}
      propertyPath: m_LocalRotation.y
      value: -0
      objectReference: {fileID: 0}
    - target: {fileID: 8167068055736964651, guid: 33d9614768ddd90448c0b4ae735d763f, type: 3}
      propertyPath: m_LocalRotation.z
      value: -0
      objectReference: {fileID: 0}
    - target: {fileID: 8167068055736964651, guid: 33d9614768ddd90448c0b4ae735d763f, type: 3}
      propertyPath: m_LocalEulerAnglesHint.x
      value: 0
      objectReference: {fileID: 0}
    - target: {fileID: 8167068055736964651, guid: 33d9614768ddd90448c0b4ae735d763f, type: 3}
      propertyPath: m_LocalEulerAnglesHint.y
      value: 0
      objectReference: {fileID: 0}
    - target: {fileID: 8167068055736964651, guid: 33d9614768ddd90448c0b4ae735d763f, type: 3}
      propertyPath: m_LocalEulerAnglesHint.z
      value: 0
      objectReference: {fileID: 0}
    - target: {fileID: 8469992474102077791, guid: 33d9614768ddd90448c0b4ae735d763f, type: 3}
      propertyPath: m_Name
      value: Hallway Variant
      objectReference: {fileID: 0}
    m_RemovedComponents: []
  m_SourcePrefab: {fileID: 100100000, guid: 33d9614768ddd90448c0b4ae735d763f, type: 3}
--- !u!4 &4015724615185326859 stripped
Transform:
  m_CorrespondingSourceObject: {fileID: 8167068055736964651, guid: 33d9614768ddd90448c0b4ae735d763f, type: 3}
  m_PrefabInstance: {fileID: 5111015354881914144}
  m_PrefabAsset: {fileID: 0}
