%YAML 1.1
%TAG !u! tag:unity3d.com,2011:
--- !u!1001 &634990831982376442
PrefabInstance:
  m_ObjectHideFlags: 0
  serializedVersion: 2
  m_Modification:
    m_TransformParent: {fileID: 0}
    m_Modifications:
    - target: {fileID: 12173746793747022, guid: 33d9614768ddd90448c0b4ae735d763f, type: 3}
      propertyPath: _length
      value: 4
      objectReference: {fileID: 0}
    - target: {fileID: 12173746793747022, guid: 33d9614768ddd90448c0b4ae735d763f, type: 3}
      propertyPath: _defaultName
      value: Module C Trappen
      objectReference: {fileID: 0}
    - target: {fileID: 12173746793747022, guid: 33d9614768ddd90448c0b4ae735d763f, type: 3}
      propertyPath: _overviewImage
      value: 
      objectReference: {fileID: 21300000, guid: b2ab06519dd1ece44abaf26d5dc7d9ff, type: 3}
    - target: {fileID: 8167068055736964651, guid: 33d9614768ddd90448c0b4ae735d763f, type: 3}
      propertyPath: m_RootOrder
      value: 0
      objectReference: {fileID: 0}
    - target: {fileID: 8167068055736964651, guid: 33d9614768ddd90448c0b4ae735d763f, type: 3}
      propertyPath: m_LocalPosition.x
      value: 0
      objectReference: {fileID: 0}
    - target: {fileID: 8167068055736964651, guid: 33d9614768ddd90448c0b4ae735d763f, type: 3}
      propertyPath: m_LocalPosition.y
      value: 0
      objectReference: {fileID: 0}
    - target: {fileID: 8167068055736964651, guid: 33d9614768ddd90448c0b4ae735d763f, type: 3}
      propertyPath: m_LocalPosition.z
      value: 0
      objectReference: {fileID: 0}
    - target: {fileID: 8167068055736964651, guid: 33d9614768ddd90448c0b4ae735d763f, type: 3}
      propertyPath: m_LocalRotation.w
      value: 1
      objectReference: {fileID: 0}
    - target: {fileID: 8167068055736964651, guid: 33d9614768ddd90448c0b4ae735d763f, type: 3}
      propertyPath: m_LocalRotation.x
      value: -0
      objectReference: {fileID: 0}
    - target: {fileID: 8167068055736964651, guid: 33d9614768ddd90448c0b4ae735d763f, type: 3}
      propertyPath: m_LocalRotation.y
      value: -0
      objectReference: {fileID: 0}
    - target: {fileID: 8167068055736964651, guid: 33d9614768ddd90448c0b4ae735d763f, type: 3}
      propertyPath: m_LocalRotation.z
      value: -0
      objectReference: {fileID: 0}
    - target: {fileID: 8167068055736964651, guid: 33d9614768ddd90448c0b4ae735d763f, type: 3}
      propertyPath: m_LocalEulerAnglesHint.x
      value: 0
      objectReference: {fileID: 0}
    - target: {fileID: 8167068055736964651, guid: 33d9614768ddd90448c0b4ae735d763f, type: 3}
      propertyPath: m_LocalEulerAnglesHint.y
      value: 0
      objectReference: {fileID: 0}
    - target: {fileID: 8167068055736964651, guid: 33d9614768ddd90448c0b4ae735d763f, type: 3}
      propertyPath: m_LocalEulerAnglesHint.z
      value: 0
      objectReference: {fileID: 0}
    - target: {fileID: 8469992474102077791, guid: 33d9614768ddd90448c0b4ae735d763f, type: 3}
      propertyPath: m_Name
      value: ModuleC Variant
      objectReference: {fileID: 0}
    m_RemovedComponents: []
  m_SourcePrefab: {fileID: 100100000, guid: 33d9614768ddd90448c0b4ae735d763f, type: 3}
--- !u!4 &8761948703047295953 stripped
Transform:
  m_CorrespondingSourceObject: {fileID: 8167068055736964651, guid: 33d9614768ddd90448c0b4ae735d763f, type: 3}
  m_PrefabInstance: {fileID: 634990831982376442}
  m_PrefabAsset: {fileID: 0}
--- !u!1001 &634990832794973587
PrefabInstance:
  m_ObjectHideFlags: 0
  serializedVersion: 2
  m_Modification:
    m_TransformParent: {fileID: 8761948703047295953}
    m_Modifications:
    - target: {fileID: 4803244659260624709, guid: 74868b142188a5f4690cc6b50001fc93, type: 3}
      propertyPath: m_RootOrder
      value: 4
      objectReference: {fileID: 0}
    - target: {fileID: 4803244659260624709, guid: 74868b142188a5f4690cc6b50001fc93, type: 3}
      propertyPath: m_LocalPosition.x
      value: 0.35
      objectReference: {fileID: 0}
    - target: {fileID: 4803244659260624709, guid: 74868b142188a5f4690cc6b50001fc93, type: 3}
      propertyPath: m_LocalPosition.y
      value: 0
      objectReference: {fileID: 0}
    - target: {fileID: 4803244659260624709, guid: 74868b142188a5f4690cc6b50001fc93, type: 3}
      propertyPath: m_LocalPosition.z
      value: -0.85
      objectReference: {fileID: 0}
    - target: {fileID: 4803244659260624709, guid: 74868b142188a5f4690cc6b50001fc93, type: 3}
      propertyPath: m_LocalRotation.w
      value: 1
      objectReference: {fileID: 0}
    - target: {fileID: 4803244659260624709, guid: 74868b142188a5f4690cc6b50001fc93, type: 3}
      propertyPath: m_LocalRotation.x
      value: 0
      objectReference: {fileID: 0}
    - target: {fileID: 4803244659260624709, guid: 74868b142188a5f4690cc6b50001fc93, type: 3}
      propertyPath: m_LocalRotation.y
      value: 0
      objectReference: {fileID: 0}
    - target: {fileID: 4803244659260624709, guid: 74868b142188a5f4690cc6b50001fc93, type: 3}
      propertyPath: m_LocalRotation.z
      value: 0
      objectReference: {fileID: 0}
    - target: {fileID: 4803244659260624709, guid: 74868b142188a5f4690cc6b50001fc93, type: 3}
      propertyPath: m_LocalEulerAnglesHint.x
      value: 0
      objectReference: {fileID: 0}
    - target: {fileID: 4803244659260624709, guid: 74868b142188a5f4690cc6b50001fc93, type: 3}
      propertyPath: m_LocalEulerAnglesHint.y
      value: 0
      objectReference: {fileID: 0}
    - target: {fileID: 4803244659260624709, guid: 74868b142188a5f4690cc6b50001fc93, type: 3}
      propertyPath: m_LocalEulerAnglesHint.z
      value: 0
      objectReference: {fileID: 0}
    - target: {fileID: 6078135966813127120, guid: 74868b142188a5f4690cc6b50001fc93, type: 3}
      propertyPath: m_Name
      value: Stairs
      objectReference: {fileID: 0}
    - target: {fileID: 7111353445807419209, guid: 74868b142188a5f4690cc6b50001fc93, type: 3}
      propertyPath: m_LocalScale.y
      value: 2.85
      objectReference: {fileID: 0}
    m_RemovedComponents: []
  m_SourcePrefab: {fileID: 100100000, guid: 74868b142188a5f4690cc6b50001fc93, type: 3}
